[api-updater (non-obsolete-error-filter)] 7/23/2021 4:24:43 PM : Starting D:/Programs/Unity/2020.3.13f1/Editor/Data/Tools/ScriptUpdater/APIUpdater.NonObsoleteApiUpdaterDetector.exe
[api-updater (non-obsolete-error-filter)] 
----------------------------------
jit/startup time      : 303.0001ms
moved types parse time: 67ms
candidates parse time : 1ms
C# parse time         : 382ms
candidates check time : 46ms
console write time    : 0ms

[api-updater (non-obsolete-error-filter)] 7/23/2021 4:24:50 PM : Starting D:/Programs/Unity/2020.3.13f1/Editor/Data/Tools/ScriptUpdater/APIUpdater.NonObsoleteApiUpdaterDetector.exe
[api-updater (non-obsolete-error-filter)] 
----------------------------------
jit/startup time      : 61.203ms
moved types parse time: 61ms
candidates parse time : 1ms
C# parse time         : 258ms
candidates check time : 47ms
console write time    : 0ms

[api-updater (non-obsolete-error-filter)] 7/23/2021 4:25:22 PM : Starting D:/Programs/Unity/2020.3.13f1/Editor/Data/Tools/ScriptUpdater/APIUpdater.NonObsoleteApiUpdaterDetector.exe
[api-updater (non-obsolete-error-filter)] 
----------------------------------
jit/startup time      : 66.2187ms
moved types parse time: 59ms
candidates parse time : 2ms
C# parse time         : 304ms
candidates check time : 43ms
console write time    : 0ms

[api-updater (non-obsolete-error-filter)] 7/23/2021 4:27:53 PM : Starting D:/Programs/Unity/2020.3.13f1/Editor/Data/Tools/ScriptUpdater/APIUpdater.NonObsoleteApiUpdaterDetector.exe
[api-updater (non-obsolete-error-filter)] 
----------------------------------
jit/startup time      : 63.2096ms
moved types parse time: 69ms
candidates parse time : 1ms
C# parse time         : 281ms
candidates check time : 45ms
console write time    : 0ms

[api-updater (non-obsolete-error-filter)] 7/23/2021 4:30:46 PM : Starting D:/Programs/Unity/2020.3.13f1/Editor/Data/Tools/ScriptUpdater/APIUpdater.NonObsoleteApiUpdaterDetector.exe
[api-updater (non-obsolete-error-filter)] 
----------------------------------
jit/startup time      : 65.2145ms
moved types parse time: 59ms
candidates parse time : 1ms
C# parse time         : 246ms
candidates check time : 44ms
console write time    : 0ms

[api-updater (non-obsolete-error-filter)] 7/23/2021 4:30:49 PM : Starting D:/Programs/Unity/2020.3.13f1/Editor/Data/Tools/ScriptUpdater/APIUpdater.NonObsoleteApiUpdaterDetector.exe
[api-updater (non-obsolete-error-filter)] 
----------------------------------
jit/startup time      : 65.216ms
moved types parse time: 59ms
candidates parse time : 1ms
C# parse time         : 247ms
candidates check time : 44ms
console write time    : 0ms

[api-updater (non-obsolete-error-filter)] 7/23/2021 4:31:11 PM : Starting D:/Programs/Unity/2020.3.13f1/Editor/Data/Tools/ScriptUpdater/APIUpdater.NonObsoleteApiUpdaterDetector.exe
[api-updater (non-obsolete-error-filter)] 
----------------------------------
jit/startup time      : 61.2022ms
moved types parse time: 63ms
candidates parse time : 1ms
C# parse time         : 283ms
candidates check time : 44ms
console write time    : 0ms

[api-updater (non-obsolete-error-filter)] 7/23/2021 7:04:21 PM : Starting D:/Programs/Unity/2020.3.13f1/Editor/Data/Tools/ScriptUpdater/APIUpdater.NonObsoleteApiUpdaterDetector.exe
[api-updater (non-obsolete-error-filter)] 
----------------------------------
jit/startup time      : 106.8608ms
moved types parse time: 65ms
candidates parse time : 1ms
C# parse time         : 222ms
candidates check time : 51ms
console write time    : 0ms

[api-updater (non-obsolete-error-filter)] 7/23/2021 7:07:35 PM : Starting D:/Programs/Unity/2020.3.13f1/Editor/Data/Tools/ScriptUpdater/APIUpdater.NonObsoleteApiUpdaterDetector.exe
[api-updater (non-obsolete-error-filter)] 
----------------------------------
jit/startup time      : 64.2118ms
moved types parse time: 70ms
candidates parse time : 1ms
C# parse time         : 272ms
candidates check time : 33ms
console write time    : 0ms

[api-updater (non-obsolete-error-filter)] 7/28/2021 9:34:18 PM : Starting D:/Programs/Unity/2020.3.13f1/Editor/Data/Tools/ScriptUpdater/APIUpdater.NonObsoleteApiUpdaterDetector.exe
[api-updater (non-obsolete-error-filter)] 
----------------------------------
jit/startup time      : 358.1881ms
moved types parse time: 69ms
candidates parse time : 1ms
C# parse time         : 514ms
candidates check time : 43ms
console write time    : 8ms

[api-updater (non-obsolete-error-filter)] 7/28/2021 9:34:40 PM : Starting D:/Programs/Unity/2020.3.13f1/Editor/Data/Tools/ScriptUpdater/APIUpdater.NonObsoleteApiUpdaterDetector.exe
[api-updater (non-obsolete-error-filter)] 
----------------------------------
jit/startup time      : 56.1863ms
moved types parse time: 54ms
candidates parse time : 1ms
C# parse time         : 203ms
candidates check time : 31ms
console write time    : 0ms

